02262018 06:56:24 PM->URL:/HRISDEV/hris/min/e2e/resources/views/pages/GlobalCaller.e2e.php?hSess=MTUxOTY0MjU4NDIwMTgwMjI2XzE1MTk2NDI1ODQyMDE4MDIyNl9heg==&hUser=admin&hUserRefId=46&hCompanyID=2&hBranchID=1&hsysgrp=2&hucode=&hUserGroup=&ccode=PCC&hEmpRefId=0&h=Secret&loginT=2018-02-26%2006:56:24%20PM&file=scrnWelcome&auth=init
02262018 06:56:56 PM->URL:/HRISDEV/hris/min/e2e/resources/views/pages/GlobalCaller.e2e.php?hSess=MTUxOTY0MjU4NDIwMTgwMjI2XzE1MTk2NDI1ODQyMDE4MDIyNl9heg==&hUser=admin&hUserRefId=46&hCompanyID=2&hBranchID=1&hsysgrp=2&hucode=&hUserGroup=&ccode=PCC&hEmpRefId=0&h=Secret&loginT=2018-02-26%2006:56:24%20PM&file=amsTrnDTR&paramTitle=Daily%20Time%20Record&auth=6fadcdff9b0fa72e270124ae5084a36357e034db
02262018 06:57:06 PM->URL:/HRISDEV/hris/min/e2e/resources/views/pages/GlobalCaller.e2e.php
02262018 06:57:34 PM->URL:/HRISDEV/hris/min/e2e/resources/views/pages/GlobalCaller.e2e.php
02262018 07:06:08 PM->URL:/HRISDEV/hris/min/e2e/resources/views/pages/GlobalCaller.e2e.php?hSess=MTUxOTY0MjU4NDIwMTgwMjI2XzE1MTk2NDI1ODQyMDE4MDIyNl9heg==&hUser=admin&hUserRefId=46&hCompanyID=2&hBranchID=1&hsysgrp=2&hucode=&hUserGroup=&ccode=PCC&hEmpRefId=0&h=Secret&loginT=2018-02-26%2006:56:24%20PM&file=scrnWelcome&paramTitle=&auth=9f411ddd3abb63851c2219cc0d486e8e7183b2c2
02262018 07:06:10 PM->URL:/HRISDEV/hris/min/e2e/resources/views/pages/GlobalCaller.e2e.php?hSess=MTUxOTY0MjU4NDIwMTgwMjI2XzE1MTk2NDI1ODQyMDE4MDIyNl9heg==&hUser=admin&hUserRefId=46&hCompanyID=2&hBranchID=1&hsysgrp=2&hucode=&hUserGroup=&ccode=PCC&hEmpRefId=0&h=Secret&loginT=2018-02-26%2006:56:24%20PM&file=scrnLogOut&id=scrnLogOut&auth=1a792f7f841a75c5b0e8002ad0034d50142053cf
