03202018 01:04:35 PM->URL:/HRISDEV/hris/min/e2e/resources/views/pages/PopCaller.e2e.php?hSess=MTUyMTUyMjEyMzIwMTgwMzIwXzE1MjE1MjIxMjMyMDE4MDMyMF9heg==&hUser=aubosque&hUserRefId=114&hCompanyID=2&hBranchID=1&hsysgrp=&hucode=COMPEMP&hUserGroup=COMPEMP&ccode=PCC&hEmpRefId=114&h=Secret&loginT=2018-03-20%2001:02:03%20PM&file=FMCaller&f=Schools&hScrnMode=1&levelType=4
03202018 01:22:59 PM->URL:/HRISDEV/hris/min/e2e/resources/views/pages/PopCaller.e2e.php?hSess=MTUyMTUyMzMyODIwMTgwMzIwXzE1MjE1MjMzMjgyMDE4MDMyMF9heg==&hUser=aubosque&hUserRefId=114&hCompanyID=2&hBranchID=1&hsysgrp=&hucode=COMPEMP&hUserGroup=COMPEMP&ccode=PCC&hEmpRefId=114&h=Secret&loginT=2018-03-20%2001:22:08%20PM&file=FMCaller&f=Organization&hScrnMode=1&objid=bint_OrganizationRefId_4
03202018 01:23:08 PM->URL:/HRISDEV/hris/min/e2e/resources/views/pages/PopCaller.e2e.php?hSess=MTUyMTUyMzMyODIwMTgwMzIwXzE1MjE1MjMzMjgyMDE4MDMyMF9heg==&hUser=aubosque&hUserRefId=114&hCompanyID=2&hBranchID=1&hsysgrp=&hucode=COMPEMP&hUserGroup=COMPEMP&ccode=PCC&hEmpRefId=114&h=Secret&loginT=2018-03-20%2001:22:08%20PM&file=FMCaller&f=Seminars&hScrnMode=1&objid=bint_SeminarsRefId_1
03202018 01:47:13 PM->URL:/HRISDEV/hris/min/e2e/resources/views/pages/PopCaller.e2e.php?hSess=MTUyMTUyMzMyODIwMTgwMzIwXzE1MjE1MjMzMjgyMDE4MDMyMF9heg==&hUser=aubosque&hUserRefId=114&hCompanyID=2&hBranchID=1&hsysgrp=&hucode=COMPEMP&hUserGroup=COMPEMP&ccode=PCC&hEmpRefId=114&h=Secret&loginT=2018-03-20%2001:22:08%20PM&file=FMCaller&f=Position&hScrnMode=1&objid=sint_PositionRefId_6
03202018 05:48:45 PM->URL:/HRISDEV/hris/min/e2e/resources/views/pages/PopCaller.e2e.php?hSess=MTUyMTUyMzMyODIwMTgwMzIwXzE1MjE1MjMzMjgyMDE4MDMyMF9heg==&hUser=aubosque&hUserRefId=114&hCompanyID=2&hBranchID=1&hsysgrp=&hucode=COMPEMP&hUserGroup=COMPEMP&ccode=PCC&hEmpRefId=114&h=Secret&loginT=2018-03-20%2001:22:08%20PM&file=FMCaller&f=Schools&hScrnMode=1&levelType=2
03202018 06:02:33 PM->URL:/HRISDEV/hris/min/e2e/resources/views/pages/PopCaller.e2e.php?hSess=MTUyMTUyMzMyODIwMTgwMzIwXzE1MjE1MjMzMjgyMDE4MDMyMF9heg==&hUser=aubosque&hUserRefId=114&hCompanyID=2&hBranchID=1&hsysgrp=&hucode=COMPEMP&hUserGroup=COMPEMP&ccode=PCC&hEmpRefId=114&h=Secret&loginT=2018-03-20%2001:22:08%20PM&file=FMCaller&f=Schools&hScrnMode=1&levelType=2
03202018 06:20:15 PM->URL:/HRISDEV/hris/min/e2e/resources/views/pages/PopCaller.e2e.php?hSess=MTUyMTUyMzMyODIwMTgwMzIwXzE1MjE1MjMzMjgyMDE4MDMyMF9heg==&hUser=aubosque&hUserRefId=114&hCompanyID=2&hBranchID=1&hsysgrp=&hucode=COMPEMP&hUserGroup=COMPEMP&ccode=PCC&hEmpRefId=114&h=Secret&loginT=2018-03-20%2001:22:08%20PM&file=FMCaller&f=Schools&hScrnMode=1&levelType=1
03202018 06:21:24 PM->URL:/HRISDEV/hris/min/e2e/resources/views/pages/PopCaller.e2e.php?hSess=MTUyMTUyMzMyODIwMTgwMzIwXzE1MjE1MjMzMjgyMDE4MDMyMF9heg==&hUser=aubosque&hUserRefId=114&hCompanyID=2&hBranchID=1&hsysgrp=&hucode=COMPEMP&hUserGroup=COMPEMP&ccode=PCC&hEmpRefId=114&h=Secret&loginT=2018-03-20%2001:22:08%20PM&file=FMCaller&f=Schools&hScrnMode=1&levelType=3
03202018 06:21:55 PM->URL:/HRISDEV/hris/min/e2e/resources/views/pages/PopCaller.e2e.php?hSess=MTUyMTUyMzMyODIwMTgwMzIwXzE1MjE1MjMzMjgyMDE4MDMyMF9heg==&hUser=aubosque&hUserRefId=114&hCompanyID=2&hBranchID=1&hsysgrp=&hucode=COMPEMP&hUserGroup=COMPEMP&ccode=PCC&hEmpRefId=114&h=Secret&loginT=2018-03-20%2001:22:08%20PM&file=FMCaller&f=Schools&hScrnMode=1&levelType=4
03202018 06:22:06 PM->URL:/HRISDEV/hris/min/e2e/resources/views/pages/PopCaller.e2e.php?hSess=MTUyMTUyMzMyODIwMTgwMzIwXzE1MjE1MjMzMjgyMDE4MDMyMF9heg==&hUser=aubosque&hUserRefId=114&hCompanyID=2&hBranchID=1&hsysgrp=&hucode=COMPEMP&hUserGroup=COMPEMP&ccode=PCC&hEmpRefId=114&h=Secret&loginT=2018-03-20%2001:22:08%20PM&file=FMCaller&f=Schools&hScrnMode=1&levelType=5
03202018 06:52:00 PM->URL:/HRISDEV/hris/min/e2e/resources/views/pages/PopCaller.e2e.php?hSess=MTUyMTU0MzExMjIwMTgwMzIwXzE1MjE1NDMxMTIyMDE4MDMyMF9heg==&hUser=aubosque&hUserRefId=114&hCompanyID=2&hBranchID=1&hsysgrp=&hucode=COMPEMP&hUserGroup=COMPEMP&ccode=PCC&hEmpRefId=114&h=Secret&loginT=2018-03-20%2006:51:52%20PM&file=FMCaller&f=Schools&hScrnMode=1&levelType=1
03202018 06:52:05 PM->URL:/HRISDEV/hris/min/e2e/resources/views/pages/PopCaller.e2e.php?hSess=MTUyMTU0MzExMjIwMTgwMzIwXzE1MjE1NDMxMTIyMDE4MDMyMF9heg==&hUser=aubosque&hUserRefId=114&hCompanyID=2&hBranchID=1&hsysgrp=&hucode=COMPEMP&hUserGroup=COMPEMP&ccode=PCC&hEmpRefId=114&h=Secret&loginT=2018-03-20%2006:51:52%20PM&file=FMCaller&f=Schools&hScrnMode=1&levelType=5
03202018 06:52:09 PM->URL:/HRISDEV/hris/min/e2e/resources/views/pages/PopCaller.e2e.php?hSess=MTUyMTU0MzExMjIwMTgwMzIwXzE1MjE1NDMxMTIyMDE4MDMyMF9heg==&hUser=aubosque&hUserRefId=114&hCompanyID=2&hBranchID=1&hsysgrp=&hucode=COMPEMP&hUserGroup=COMPEMP&ccode=PCC&hEmpRefId=114&h=Secret&loginT=2018-03-20%2006:51:52%20PM&file=FMCaller&f=Schools&hScrnMode=1&levelType=5
03202018 07:52:52 PM->URL:/HRISDEV/hris/min/e2e/resources/views/pages/PopCaller.e2e.php?hSess=MTUyMTU0NTIwMDIwMTgwMzIwXzE1MjE1NDUyMDAyMDE4MDMyMF9heg==&hUser=aubosque&hUserRefId=114&hCompanyID=2&hBranchID=1&hsysgrp=&hucode=COMPEMP&hUserGroup=COMPEMP&ccode=PCC&hEmpRefId=114&h=Secret&loginT=2018-03-20%2007:26:40%20PM&file=FMCaller&f=Organization&hScrnMode=1&objid=bint_OrganizationRefId_1
03202018 07:53:58 PM->URL:/HRISDEV/hris/min/e2e/resources/views/pages/PopCaller.e2e.php?hSess=MTUyMTU0NTIwMDIwMTgwMzIwXzE1MjE1NDUyMDAyMDE4MDMyMF9heg==&hUser=aubosque&hUserRefId=114&hCompanyID=2&hBranchID=1&hsysgrp=&hucode=COMPEMP&hUserGroup=COMPEMP&ccode=PCC&hEmpRefId=114&h=Secret&loginT=2018-03-20%2007:26:40%20PM&file=FMCaller&f=Organization&hScrnMode=1&objid=bint_OrganizationRefId_1
