01192018 10:31:26 AM->URL:/HRISDEV/hris/min/e2e/resources/views/pages/GlobalCaller.e2e.php?hSess=MTUxNjMyOTA4NjIwMTgwMTE5XzE1MTYzMjkwODYyMDE4MDExOV9heg==&hUser=mmmalabag&hUserRefId=123&hCompanyID=2&hBranchID=1&hsysgrp=&hucode=COMPEMP&hUserGroup=COMPEMP&ccode=PCC&hEmpRefId=123&h=Secret&loginT=2018-01-19%2010:31:26%20AM&file=scrnWelcome
01192018 10:31:29 AM->URL:/HRISDEV/hris/min/e2e/resources/views/pages/GlobalCaller.e2e.php?hSess=MTUxNjMyOTA4NjIwMTgwMTE5XzE1MTYzMjkwODYyMDE4MDExOV9heg==&hUser=mmmalabag&hUserRefId=123&hCompanyID=2&hBranchID=1&hsysgrp=&hucode=COMPEMP&hUserGroup=COMPEMP&ccode=PCC&hEmpRefId=123&h=Secret&loginT=2018-01-19%2010:31:26%20AM&file=scrn201File&paramTitle=201%20File&hTable=Employees
01192018 10:31:47 AM->URL:/HRISDEV/hris/min/e2e/resources/views/pages/GlobalCaller.e2e.php?hSess=MTUxNjMyOTA4NjIwMTgwMTE5XzE1MTYzMjkwODYyMDE4MDExOV9heg==&hUser=mmmalabag&hUserRefId=123&hCompanyID=2&hBranchID=1&hsysgrp=&hucode=COMPEMP&hUserGroup=COMPEMP&ccode=PCC&hEmpRefId=123&h=Secret&loginT=2018-01-19%2010:31:26%20AM&file=scrnLogOut&id=mLogOut
