{
   "Module": "Module.AMS.Availment.Authority",
   "Module.AMS.Availment.Authority": {
      "jsonFile": "AvailmentAuthority",
      "Module Name": "Availment of Authority",
      "Description": "",
      "Author": "Erwin Mendoza",
      "System": "Attendance Management System",
      "Module Save Type": "Multiple",
      "Module Type": "List",
      "dbTable": "employeesauthority",
      "dbField": [
         [
            "ApplicationDateFrom",
            "date_ApplicationDateFrom",
            "",
            "date",
            "Application Date From"
         ],
         [
            "ApplicationDateTo",
            "date_ApplicationDateTo",
            "",
            "date",
            "Application Date To"
         ],
         [
            "AbsencesRefId",
            "sint_AbsencesRefId",
            "0",
            "int",
            "Authority"
         ],
         [
            "FromTime",
            "StartTime",
            "0",
            "int",
            "Start Time"
         ],
         [
            "ToTime",
            "EndTime",
            "0",
            "int",
            "End Time"
         ],
         [
            "FiledDate",
            "date_FiledDate",
            "",
            "date",
            "Date Filed"
         ],
         [
            "Remarks",
            "char_Remarks",
            "",
            "char",
            "Remarks"
         ]
      ],
      "field.EndDate": "ApplicationDateTo",
      "field.StartDate": "ApplicationDateFrom",
      "Notes": "Fields[0] - Object Name[1] - Default Value[2] - Data Type[3] - Label[4]"

   }

}

