{
	"Title":"SeminarClassifications",
	"Table":"seminarclass",
	"File":"modelSemClass",
	"Description":"",
	"Action":[true,true,true,false],
	"Label":["Code","Name","Remarks"],
	"Fields":["Code","Name","Remarks"]
}