{
	"Title":"Document Type Attachment",
	"Table":"attachdoctype",
	"File":"modelDocType",
	"Description":"",
	"Action":[true,true,true,false],
	"Label":["Code","Name","Remarks"],
	"Fields":["Code","Name","Remarks"]
}