{
	"Title":"Requirements",
	"Table":"requirements",
	"File":"modelRequirements",
	"Description":"",
	"Action":[true,true,true,false],
	"Label":["Code","Name","Remarks"],
	"Fields":["Code","Name","Remarks"]
}