{
	"Title":"Occupations",
	"Table":"occupations",
	"File":"modelOccupations",
	"Description":"",
	"Action":[true,true,true,false],
	"Label":["Code","Name","Remarks"],
	"Fields":["Code","Name","Remarks"]
}